…
        # 2. Specify the condition: is the value NOT NA?
        # The ~ creates a mini-function, .x is the value in the cell
        ~ !is.na(.x)
      )
    )
  write.table(final_significant_results, "mvsusie_results_with_prior_CS.pip_95.lfsr_01.noNA.tsv", sep="\t", row.names = F, col.names = T, quote = F)
```

The `final_significant_results` variable should look like this:
```
# A tibble: 847 × 25
   locus_cs_id index SNP         pip    Fluid      WHR   BMI Pairs meanRT `TMT-A`  MetS   PAL   Num   FPG   SDS  T2DM   FPI Tower HbA1c
   <chr>       <int> <chr>     <dbl>    <dbl>    <dbl> <dbl> <dbl>  <dbl>   <dbl> <dbl> <dbl> <dbl> <dbl> <dbl> <dbl> <dbl> <dbl> <dbl>
 1 Locus_9_L1    337 rs200448  0.999 9.43e- 4 9.43e- 4    NA    NA     NA      NA    NA    NA    NA    NA    NA    NA    NA    NA    NA
 2 Locus_9_L2    394 rs277679  1.000 5.20e- 5 5.20e- 5    NA    NA     NA      NA    NA    NA    NA    NA    NA    NA    NA    NA    NA
 3 Locus_9_L3    334 rs200440  1     1   e-20 1   e-20    NA    NA     NA      NA    NA    NA    NA    NA    NA    NA    NA    NA    NA
 4 Locus_9_L4    398 rs278020  1     1   e-20 1   e-20    NA    NA     NA      NA    NA    NA    NA    NA    NA    NA    NA    NA    NA
 5 Locus_9_L5    418 rs350704… 1     1   e-20 1   e-20    NA    NA     NA      NA    NA    NA    NA    NA    NA    NA    NA    NA    NA
# ℹ 842 more rows
# ℹ 6 more variables: IFC <dbl>, ISI <dbl>, `2hGlu` <dbl>, Matrix <dbl>, Obesity <dbl>, `TMT-B` <dbl>
# ℹ Use `print(n = ...)` to see more rows
```
…
